Codebook example with manual labelling • codebook
…
and our data dictionary.

bfi.dictionary

## # A tibble: 28 x 8
##    variable ItemLabel Item         Giant3  Big6    Little12  Keying IPIP100
##    <chr>    <fct>     <fct>        <fct>   <fct>   <fct>      <int> <fct>  
##  1 A1       q_146     Am indiffer… Cohesi… Agreea… Compassi…     -1 B5:A   
##  2 A2       q_1162    Inquire abo… Cohesi… Agreea… Compassi…      1 B5:A   
##  3 A3       q_1206    Know how to… Cohesi… Agreea… Compassi…      1 B5:A   
##  4 A4       q_1364    Love childr… Cohesi… Agreea… Compassi…      1 B5:A   
##  5 A5       q_1419    Make people… Cohesi… Agreea… Compassi…      1 B5:A   
##  6 C1       q_124     Am exacting… Stabil… Consci… Orderlin…      1 B5:C   
##  7 C2       q_530     Continue un… Stabil… Consci… Orderlin…      1 B5:C   
##  8 C3       q_619     Do things a… Stabil… Consci… Orderlin…      1 B5:C   
##  9 C4       q_626     Do things i… Stabil… Consci… Industri…     -1 B5:C   
## 10 C5       q_1949    Waste my ti… Stabil… Consci… Industri…     -1 B5:C   
## # … with 18 more rows
…
